{
	"ulid": "01HCW294B7QTQ5DA0G2B9RB4Y0",
	"minTime": 1697371202217,
	"maxTime": 1697436000000,
	"stats": {
		"numSamples": 16681256,
		"numSeries": 1294,
		"numChunks": 139456
	},
	"compaction": {
		"level": 3,
		"sources": [
			"01HCSXKVYMQXKFBJXQV33B54WJ",
			"01HCT4FK6QETGS0YVTXJMX2625",
			"01HCTBBAEN24ADWVGGDNC3DG93",
			"01HCTJ71BQGZJP0EARF6KWYVK4",
			"01HCTS2QDSXGAW1ACZSMW81G8B",
			"01HCTZYENS6J80Y9EEJN3N6BRY",
			"01HCV6T5XSXYJEPKCCSSJ2NS3M",
			"01HCVDNX5S59N1BWXA9MP7WVVM",
			"01HCVMHMDS2TN1Y8EAQNDS0H1R"
		],
		"parents": [
			{
				"ulid": "01HCTS2QTJ1VYFQHWSTKVKP3TC",
				"minTime": 1697371202217,
				"maxTime": 1697392800000
			},
			{
				"ulid": "01HCVDNXWTNRZAZ67RC06F43R9",
				"minTime": 1697392802217,
				"maxTime": 1697414400000
			},
			{
				"ulid": "01HCW2931KS7J606363Z0Q8XNJ",
				"minTime": 1697414400653,
				"maxTime": 1697436000000
			}
		]
	},
	"version": 1
}