{
	"ulid": "01HCR6P3J2YXTVVXXQZ660TEK5",
	"minTime": 1697241600038,
	"maxTime": 1697306400000,
	"stats": {
		"numSamples": 16679520,
		"numSeries": 1287,
		"numChunks": 139437
	},
	"compaction": {
		"level": 3,
		"sources": [
			"01HCP20Q7Z01JX81SDYK6VPC9Y",
			"01HCP8WEFY26BP0QKBWTNGD1VE",
			"01HCPFR5QZ3Z0XPYTBK06Z9N4Q",
			"01HCPPKWZY3SRYQMCRGZ5VB1TJ",
			"01HCPXFM807HKE91K3JHR6DHZJ",
			"01HCQ4BBFZ2Q9KRGP9ZC89G4K0",
			"01HCQB72DKXD8S59PN8XPX3N4Q",
			"01HCQJ2SZZCXFHM42FZCK128FS",
			"01HCQRYH7XD1BTRSWFF690A09H"
		],
		"parents": [
			{
				"ulid": "01HCPXFMP5S49AYB4HFRPNGRK2",
				"minTime": 1697241600038,
				"maxTime": 1697263200000
			},
			{
				"ulid": "01HCQJ2TR7TVZMZZMRKCYXFMMN",
				"minTime": 1697263200037,
				"maxTime": 1697284800000
			},
			{
				"ulid": "01HCR6P2ENNCHP45SKR2QHCNXY",
				"minTime": 1697284800037,
				"maxTime": 1697306400000
			}
		]
	},
	"version": 1
}